<?xml version="1.0" encoding="utf-8"?>
<!-- Generator: Adobe Illustrator 25.3.0, SVG Export Plug-In . SVG Version: 6.00 Build 0)  -->
<svg version="1.1" id="Layer_1" xmlns="http://www.w3.org/2000/svg" xmlns:xlink="http://www.w3.org/1999/xlink" x="0px" y="0px"
	 viewBox="0 0 40 40" style="enable-background:new 0 0 40 40;" xml:space="preserve">
<style type="text/css">
	.st0{fill:#81C221;}
</style>
<path class="st0" d="M22.9,21.5c1.4,0,2.8,0,4.2,0c0,0.2,0,0.3,0,0.5c0,2.7,0,5.4,0,8.1c0,3,3.2,5.1,6,3.8c1.8-0.8,2.5-2.3,2.5-4.2
	c0-5.9,0-11.8,0-17.7c0-0.2,0-0.3,0-0.5c0.1,0,0.2,0,0.3,0c2.1-0.2,3.7-1.6,3.9-3.6C39.9,7,39.9,6,39.9,5.1c0-0.4-0.3-0.6-0.7-0.7
	c-0.2,0-0.5,0-0.7,0c0-1,0-1.9,0-2.9c0-0.6-0.3-1-0.8-1.3C37.2,0,36.8,0,36.3,0.3S35.6,1,35.6,1.6c0,0.9,0,1.8,0,2.7
	c-1,0-1.9,0-2.8,0c0-1,0-1.9,0-2.8c0-0.8-0.6-1.5-1.4-1.4c-0.8,0-1.4,0.6-1.4,1.4c0,0.3,0,0.7,0,1c0,0.6,0,1.2,0,1.8
	c-0.2,0-0.3,0-0.5,0c-0.7,0-1,0.2-1,1c0,0.7,0,1.3,0,2c0,1.2,0.5,2.2,1.4,3.1c0.8,0.7,1.8,1.1,2.9,1.2c0,0.2,0,0.4,0,0.6
	c0,5,0,10.1,0,15.1c0,0.9,0,1.9,0,2.8c0,0.6-0.3,1.1-0.9,1.4c-0.9,0.4-2-0.3-2-1.4c0-2.8,0-5.6,0-8.4c0-1.7-1.2-2.9-2.9-2.9
	c-1.2,0-2.5,0-3.7,0c-0.2,0-0.3,0-0.5,0c0-0.2,0-0.4,0-0.6c0-5,0-9.9,0-14.9c0-1.9-1.2-3.1-3.1-3.1c-4.1,0-8.3,0-12.4,0
	c-0.2,0-0.4,0-0.7,0c-1.5,0.3-2.4,1.4-2.4,3c0,11.1,0,22.3,0,33.4c0,0.2,0,0.4,0,0.6c-1.5,0-2.8,0-4.2,0c0,0.9,0,1.9,0,2.8
	c13.3,0,26.6,0,39.8,0c0-0.9,0-1.9,0-2.8c-5.7,0-11.4,0-17,0C22.9,31.8,22.9,26.6,22.9,21.5z M18.2,25.6h-3.5v3.5h-2.6v-3.5H8.6V23
	h3.5v-3.5h2.6V23h3.5V25.6z M20,10c-4.2,0-8.5,0-12.8,0c0-1.9,0-3.8,0-5.6c4.3,0,8.5,0,12.8,0C20,6.2,20,8.1,20,10z"/>
</svg>
